# GRL: GoodRunsLists/data15_13TeV/20170619/data15_13TeV.periodAllYear_DetStatus-v89-pro21-02_Unknown_PHYS_StandardGRL_All_Good_25ns.xml
period2015 data15_13TeV:data15_13TeV.00276262.physics_Main.deriv.DAOD_HIGG1D1.r9264_p3083_p3402/
period2015 data15_13TeV:data15_13TeV.00276329.physics_Main.deriv.DAOD_HIGG1D1.r9264_p3083_p3402/
period2015 data15_13TeV:data15_13TeV.00276336.physics_Main.deriv.DAOD_HIGG1D1.r9264_p3083_p3402/
period2015 data15_13TeV:data15_13TeV.00276416.physics_Main.deriv.DAOD_HIGG1D1.r9264_p3083_p3402/
period2015 data15_13TeV:data15_13TeV.00276511.physics_Main.deriv.DAOD_HIGG1D1.r9264_p3083_p3402/
period2015 data15_13TeV:data15_13TeV.00276689.physics_Main.deriv.DAOD_HIGG1D1.r9264_p3083_p3402/
period2015 data15_13TeV:data15_13TeV.00276778.physics_Main.deriv.DAOD_HIGG1D1.r9264_p3083_p3402/
period2015 data15_13TeV:data15_13TeV.00276790.physics_Main.deriv.DAOD_HIGG1D1.r9264_p3083_p3402/
period2015 data15_13TeV:data15_13TeV.00276952.physics_Main.deriv.DAOD_HIGG1D1.r9264_p3083_p3402/
period2015 data15_13TeV:data15_13TeV.00276954.physics_Main.deriv.DAOD_HIGG1D1.r9264_p3083_p3402/
period2015 data15_13TeV:data15_13TeV.00278880.physics_Main.deriv.DAOD_HIGG1D1.r9264_p3083_p3402/
period2015 data15_13TeV:data15_13TeV.00278912.physics_Main.deriv.DAOD_HIGG1D1.r9264_p3083_p3402/
period2015 data15_13TeV:data15_13TeV.00278968.physics_Main.deriv.DAOD_HIGG1D1.r9264_p3083_p3402/
period2015 data15_13TeV:data15_13TeV.00279169.physics_Main.deriv.DAOD_HIGG1D1.r9264_p3083_p3402/
period2015 data15_13TeV:data15_13TeV.00279259.physics_Main.deriv.DAOD_HIGG1D1.r9264_p3083_p3402/
period2015 data15_13TeV:data15_13TeV.00279279.physics_Main.deriv.DAOD_HIGG1D1.r9264_p3083_p3402/
period2015 data15_13TeV:data15_13TeV.00279284.physics_Main.deriv.DAOD_HIGG1D1.r9264_p3083_p3402/
period2015 data15_13TeV:data15_13TeV.00279345.physics_Main.deriv.DAOD_HIGG1D1.r9264_p3083_p3402/
period2015 data15_13TeV:data15_13TeV.00279515.physics_Main.deriv.DAOD_HIGG1D1.r9264_p3083_p3402/
period2015 data15_13TeV:data15_13TeV.00279598.physics_Main.deriv.DAOD_HIGG1D1.r9264_p3083_p3402/
period2015 data15_13TeV:data15_13TeV.00279685.physics_Main.deriv.DAOD_HIGG1D1.r9264_p3083_p3402/
period2015 data15_13TeV:data15_13TeV.00279764.physics_Main.deriv.DAOD_HIGG1D1.r9264_p3083_p3402/
period2015 data15_13TeV:data15_13TeV.00279813.physics_Main.deriv.DAOD_HIGG1D1.r9264_p3083_p3402/
period2015 data15_13TeV:data15_13TeV.00279867.physics_Main.deriv.DAOD_HIGG1D1.r9264_p3083_p3402/
period2015 data15_13TeV:data15_13TeV.00279928.physics_Main.deriv.DAOD_HIGG1D1.r9264_p3083_p3402/
period2015 data15_13TeV:data15_13TeV.00279932.physics_Main.deriv.DAOD_HIGG1D1.r9264_p3083_p3402/
period2015 data15_13TeV:data15_13TeV.00279984.physics_Main.deriv.DAOD_HIGG1D1.r9264_p3083_p3402/
period2015 data15_13TeV:data15_13TeV.00280231.physics_Main.deriv.DAOD_HIGG1D1.r9264_p3083_p3402/
period2015 data15_13TeV:data15_13TeV.00280273.physics_Main.deriv.DAOD_HIGG1D1.r9264_p3083_p3402/
period2015 data15_13TeV:data15_13TeV.00280319.physics_Main.deriv.DAOD_HIGG1D1.r9264_p3083_p3402/
period2015 data15_13TeV:data15_13TeV.00280368.physics_Main.deriv.DAOD_HIGG1D1.r9264_p3083_p3402/
period2015 data15_13TeV:data15_13TeV.00280423.physics_Main.deriv.DAOD_HIGG1D1.r9264_p3083_p3402/
period2015 data15_13TeV:data15_13TeV.00280464.physics_Main.deriv.DAOD_HIGG1D1.r9264_p3083_p3402/
period2015 data15_13TeV:data15_13TeV.00280500.physics_Main.deriv.DAOD_HIGG1D1.r9264_p3083_p3402/
period2015 data15_13TeV:data15_13TeV.00280520.physics_Main.deriv.DAOD_HIGG1D1.r9264_p3083_p3402/
period2015 data15_13TeV:data15_13TeV.00280614.physics_Main.deriv.DAOD_HIGG1D1.r9264_p3083_p3402/
period2015 data15_13TeV:data15_13TeV.00280673.physics_Main.deriv.DAOD_HIGG1D1.r9264_p3083_p3402/
period2015 data15_13TeV:data15_13TeV.00280753.physics_Main.deriv.DAOD_HIGG1D1.r9264_p3083_p3402/
period2015 data15_13TeV:data15_13TeV.00280853.physics_Main.deriv.DAOD_HIGG1D1.r9264_p3083_p3402/
period2015 data15_13TeV:data15_13TeV.00280862.physics_Main.deriv.DAOD_HIGG1D1.r9264_p3083_p3402/
period2015 data15_13TeV:data15_13TeV.00280950.physics_Main.deriv.DAOD_HIGG1D1.r9264_p3083_p3402/
period2015 data15_13TeV:data15_13TeV.00280977.physics_Main.deriv.DAOD_HIGG1D1.r9264_p3083_p3402/
period2015 data15_13TeV:data15_13TeV.00281070.physics_Main.deriv.DAOD_HIGG1D1.r9264_p3083_p3402/
period2015 data15_13TeV:data15_13TeV.00281074.physics_Main.deriv.DAOD_HIGG1D1.r9264_p3083_p3402/
period2015 data15_13TeV:data15_13TeV.00281075.physics_Main.deriv.DAOD_HIGG1D1.r9264_p3083_p3402/
period2015 data15_13TeV:data15_13TeV.00281317.physics_Main.deriv.DAOD_HIGG1D1.r9264_p3083_p3402/
period2015 data15_13TeV:data15_13TeV.00281385.physics_Main.deriv.DAOD_HIGG1D1.r9264_p3083_p3402/
period2015 data15_13TeV:data15_13TeV.00281411.physics_Main.deriv.DAOD_HIGG1D1.r9264_p3083_p3402/
period2015 data15_13TeV:data15_13TeV.00282625.physics_Main.deriv.DAOD_HIGG1D1.r9264_p3083_p3402/
period2015 data15_13TeV:data15_13TeV.00282631.physics_Main.deriv.DAOD_HIGG1D1.r9264_p3083_p3402/
period2015 data15_13TeV:data15_13TeV.00282712.physics_Main.deriv.DAOD_HIGG1D1.r9264_p3083_p3402/
period2015 data15_13TeV:data15_13TeV.00282784.physics_Main.deriv.DAOD_HIGG1D1.r9264_p3083_p3402/
period2015 data15_13TeV:data15_13TeV.00282992.physics_Main.deriv.DAOD_HIGG1D1.r9264_p3083_p3402/
period2015 data15_13TeV:data15_13TeV.00283074.physics_Main.deriv.DAOD_HIGG1D1.r9264_p3083_p3402/
period2015 data15_13TeV:data15_13TeV.00283155.physics_Main.deriv.DAOD_HIGG1D1.r9264_p3083_p3402/
period2015 data15_13TeV:data15_13TeV.00283270.physics_Main.deriv.DAOD_HIGG1D1.r9264_p3083_p3402/
period2015 data15_13TeV:data15_13TeV.00283429.physics_Main.deriv.DAOD_HIGG1D1.r9264_p3083_p3402/
period2015 data15_13TeV:data15_13TeV.00283608.physics_Main.deriv.DAOD_HIGG1D1.r9264_p3083_p3402/
period2015 data15_13TeV:data15_13TeV.00283780.physics_Main.deriv.DAOD_HIGG1D1.r9264_p3083_p3402/
period2015 data15_13TeV:data15_13TeV.00284006.physics_Main.deriv.DAOD_HIGG1D1.r9264_p3083_p3402/
period2015 data15_13TeV:data15_13TeV.00284154.physics_Main.deriv.DAOD_HIGG1D1.r9264_p3083_p3402/
period2015 data15_13TeV:data15_13TeV.00284213.physics_Main.deriv.DAOD_HIGG1D1.r9264_p3083_p3402/
period2015 data15_13TeV:data15_13TeV.00284285.physics_Main.deriv.DAOD_HIGG1D1.r9264_p3083_p3402/
period2015 data15_13TeV:data15_13TeV.00284420.physics_Main.deriv.DAOD_HIGG1D1.r9264_p3083_p3402/
period2015 data15_13TeV:data15_13TeV.00284427.physics_Main.deriv.DAOD_HIGG1D1.r9264_p3083_p3402/
period2015 data15_13TeV:data15_13TeV.00284484.physics_Main.deriv.DAOD_HIGG1D1.r9264_p3083_p3402/

# GRL: GoodRunsLists/data17_13TeV/20180309/data17_13TeV.periodAllYear_DetStatus-v97-pro21-13_Unknown_PHYS_StandardGRL_All_Good_25ns_Triggerno17e33prim.xml
period2017 data17_13TeV:data17_13TeV.00325713.physics_Main.deriv.DAOD_HIGG1D1.f839_m1824_p3468/
period2017 data17_13TeV:data17_13TeV.00325790.physics_Main.deriv.DAOD_HIGG1D1.f839_m1824_p3468/
period2017 data17_13TeV:data17_13TeV.00326439.physics_Main.deriv.DAOD_HIGG1D1.f838_m1824_p3468/
period2017 data17_13TeV:data17_13TeV.00326446.physics_Main.deriv.DAOD_HIGG1D1.f838_m1824_p3468/
period2017 data17_13TeV:data17_13TeV.00326468.physics_Main.deriv.DAOD_HIGG1D1.f838_m1824_p3468/
period2017 data17_13TeV:data17_13TeV.00326551.physics_Main.deriv.DAOD_HIGG1D1.f838_m1824_p3468/
period2017 data17_13TeV:data17_13TeV.00326657.physics_Main.deriv.DAOD_HIGG1D1.f838_m1824_p3468/
period2017 data17_13TeV:data17_13TeV.00326695.physics_Main.deriv.DAOD_HIGG1D1.f838_m1824_p3468/
period2017 data17_13TeV:data17_13TeV.00326834.physics_Main.deriv.DAOD_HIGG1D1.f837_m1824_p3468/
period2017 data17_13TeV:data17_13TeV.00326870.physics_Main.deriv.DAOD_HIGG1D1.f837_m1824_p3468/
period2017 data17_13TeV:data17_13TeV.00326923.physics_Main.deriv.DAOD_HIGG1D1.f837_m1824_p3468/
period2017 data17_13TeV:data17_13TeV.00326945.physics_Main.deriv.DAOD_HIGG1D1.f837_m1824_p3468/
period2017 data17_13TeV:data17_13TeV.00327057.physics_Main.deriv.DAOD_HIGG1D1.f837_m1824_p3468/
period2017 data17_13TeV:data17_13TeV.00327103.physics_Main.deriv.DAOD_HIGG1D1.f838_m1824_p3468/
period2017 data17_13TeV:data17_13TeV.00327265.physics_Main.deriv.DAOD_HIGG1D1.f838_m1824_p3468/
period2017 data17_13TeV:data17_13TeV.00327342.physics_Main.deriv.DAOD_HIGG1D1.f838_m1824_p3468/
period2017 data17_13TeV:data17_13TeV.00327490.physics_Main.deriv.DAOD_HIGG1D1.f838_m1824_p3468/
period2017 data17_13TeV:data17_13TeV.00327582.physics_Main.deriv.DAOD_HIGG1D1.f838_m1824_p3468/
period2017 data17_13TeV:data17_13TeV.00327636.physics_Main.deriv.DAOD_HIGG1D1.f838_m1824_p3468/
period2017 data17_13TeV:data17_13TeV.00327662.physics_Main.deriv.DAOD_HIGG1D1.f838_m1824_p3468/
period2017 data17_13TeV:data17_13TeV.00327745.physics_Main.deriv.DAOD_HIGG1D1.f838_m1824_p3468/
period2017 data17_13TeV:data17_13TeV.00327761.physics_Main.deriv.DAOD_HIGG1D1.f838_m1824_p3468/
period2017 data17_13TeV:data17_13TeV.00327764.physics_Main.deriv.DAOD_HIGG1D1.f836_m1824_p3468/
period2017 data17_13TeV:data17_13TeV.00327860.physics_Main.deriv.DAOD_HIGG1D1.f836_m1824_p3468/
period2017 data17_13TeV:data17_13TeV.00327862.physics_Main.deriv.DAOD_HIGG1D1.f836_m1824_p3468/
period2017 data17_13TeV:data17_13TeV.00328042.physics_Main.deriv.DAOD_HIGG1D1.f836_m1824_p3468/
period2017 data17_13TeV:data17_13TeV.00328099.physics_Main.deriv.DAOD_HIGG1D1.f836_m1824_p3468/
period2017 data17_13TeV:data17_13TeV.00328221.physics_Main.deriv.DAOD_HIGG1D1.f836_m1824_p3468/
period2017 data17_13TeV:data17_13TeV.00328263.physics_Main.deriv.DAOD_HIGG1D1.f836_m1824_p3468/
period2017 data17_13TeV:data17_13TeV.00328333.physics_Main.deriv.DAOD_HIGG1D1.f836_m1824_p3468/
period2017 data17_13TeV:data17_13TeV.00328374.physics_Main.deriv.DAOD_HIGG1D1.f836_m1824_p3468/
period2017 data17_13TeV:data17_13TeV.00328393.physics_Main.deriv.DAOD_HIGG1D1.f836_m1824_p3468/
period2017 data17_13TeV:data17_13TeV.00329716.physics_Main.deriv.DAOD_HIGG1D1.f847_m1839_p3468/
period2017 data17_13TeV:data17_13TeV.00329778.physics_Main.deriv.DAOD_HIGG1D1.f843_m1824_p3468/
period2017 data17_13TeV:data17_13TeV.00329780.physics_Main.deriv.DAOD_HIGG1D1.f843_m1824_p3468/
period2017 data17_13TeV:data17_13TeV.00329829.physics_Main.deriv.DAOD_HIGG1D1.f843_m1824_p3468/
period2017 data17_13TeV:data17_13TeV.00329835.physics_Main.deriv.DAOD_HIGG1D1.f843_m1824_p3468/
period2017 data17_13TeV:data17_13TeV.00329869.physics_Main.deriv.DAOD_HIGG1D1.f843_m1824_p3468/
period2017 data17_13TeV:data17_13TeV.00329964.physics_Main.deriv.DAOD_HIGG1D1.f843_m1824_p3468/
period2017 data17_13TeV:data17_13TeV.00330025.physics_Main.deriv.DAOD_HIGG1D1.f843_m1824_p3468/
period2017 data17_13TeV:data17_13TeV.00330074.physics_Main.deriv.DAOD_HIGG1D1.f843_m1824_p3468/
period2017 data17_13TeV:data17_13TeV.00330079.physics_Main.deriv.DAOD_HIGG1D1.f843_m1824_p3468/
period2017 data17_13TeV:data17_13TeV.00330101.physics_Main.deriv.DAOD_HIGG1D1.f843_m1824_p3468/
period2017 data17_13TeV:data17_13TeV.00330160.physics_Main.deriv.DAOD_HIGG1D1.f843_m1824_p3468/
period2017 data17_13TeV:data17_13TeV.00330166.physics_Main.deriv.DAOD_HIGG1D1.f843_m1824_p3468/
period2017 data17_13TeV:data17_13TeV.00330203.physics_Main.deriv.DAOD_HIGG1D1.f843_m1824_p3468/
period2017 data17_13TeV:data17_13TeV.00330294.physics_Main.deriv.DAOD_HIGG1D1.f843_m1824_p3468/
period2017 data17_13TeV:data17_13TeV.00330470.physics_Main.deriv.DAOD_HIGG1D1.f843_m1824_p3468/
period2017 data17_13TeV:data17_13TeV.00331033.physics_Main.deriv.DAOD_HIGG1D1.f846_m1839_p3468/
period2017 data17_13TeV:data17_13TeV.00331082.physics_Main.deriv.DAOD_HIGG1D1.f846_m1839_p3468/
period2017 data17_13TeV:data17_13TeV.00331085.physics_Main.deriv.DAOD_HIGG1D1.f848_m1844_p3468/
period2017 data17_13TeV:data17_13TeV.00331129.physics_Main.deriv.DAOD_HIGG1D1.f848_m1844_p3468/
period2017 data17_13TeV:data17_13TeV.00331215.physics_Main.deriv.DAOD_HIGG1D1.f848_m1844_p3468/
period2017 data17_13TeV:data17_13TeV.00331697.physics_Main.deriv.DAOD_HIGG1D1.f848_m1844_p3468/
period2017 data17_13TeV:data17_13TeV.00331710.physics_Main.deriv.DAOD_HIGG1D1.f848_m1844_p3468/
period2017 data17_13TeV:data17_13TeV.00331742.physics_Main.deriv.DAOD_HIGG1D1.f848_m1844_p3468/
period2017 data17_13TeV:data17_13TeV.00331772.physics_Main.deriv.DAOD_HIGG1D1.f848_m1844_p3468/
period2017 data17_13TeV:data17_13TeV.00331804.physics_Main.deriv.DAOD_HIGG1D1.f848_m1844_p3468/
period2017 data17_13TeV:data17_13TeV.00331825.physics_Main.deriv.DAOD_HIGG1D1.f848_m1844_p3468/
period2017 data17_13TeV:data17_13TeV.00331860.physics_Main.deriv.DAOD_HIGG1D1.f848_m1844_p3468/
period2017 data17_13TeV:data17_13TeV.00331875.physics_Main.deriv.DAOD_HIGG1D1.f848_m1844_p3468/
period2017 data17_13TeV:data17_13TeV.00331905.physics_Main.deriv.DAOD_HIGG1D1.f848_m1844_p3468/
period2017 data17_13TeV:data17_13TeV.00331951.physics_Main.deriv.DAOD_HIGG1D1.f848_m1844_p3468/
period2017 data17_13TeV:data17_13TeV.00331975.physics_Main.deriv.DAOD_HIGG1D1.f851_m1850_p3468/
period2017 data17_13TeV:data17_13TeV.00332303.physics_Main.deriv.DAOD_HIGG1D1.f851_m1850_p3468/
period2017 data17_13TeV:data17_13TeV.00332304.physics_Main.deriv.DAOD_HIGG1D1.f851_m1850_p3468/
period2017 data17_13TeV:data17_13TeV.00332720.physics_Main.deriv.DAOD_HIGG1D1.f851_m1850_p3468/
period2017 data17_13TeV:data17_13TeV.00332896.physics_Main.deriv.DAOD_HIGG1D1.f854_m1850_p3468/
period2017 data17_13TeV:data17_13TeV.00332915.physics_Main.deriv.DAOD_HIGG1D1.f854_m1850_p3468/
period2017 data17_13TeV:data17_13TeV.00332953.physics_Main.deriv.DAOD_HIGG1D1.f854_m1850_p3468/
period2017 data17_13TeV:data17_13TeV.00332955.physics_Main.deriv.DAOD_HIGG1D1.f854_m1850_p3468/
period2017 data17_13TeV:data17_13TeV.00333181.physics_Main.deriv.DAOD_HIGG1D1.f854_m1850_p3468/
period2017 data17_13TeV:data17_13TeV.00333192.physics_Main.deriv.DAOD_HIGG1D1.f857_m1855_p3468/
period2017 data17_13TeV:data17_13TeV.00333367.physics_Main.deriv.DAOD_HIGG1D1.f857_m1855_p3468/
period2017 data17_13TeV:data17_13TeV.00333380.physics_Main.deriv.DAOD_HIGG1D1.f857_m1855_p3468/
period2017 data17_13TeV:data17_13TeV.00333426.physics_Main.deriv.DAOD_HIGG1D1.f857_m1855_p3468/
period2017 data17_13TeV:data17_13TeV.00333469.physics_Main.deriv.DAOD_HIGG1D1.f857_m1855_p3468/
period2017 data17_13TeV:data17_13TeV.00333487.physics_Main.deriv.DAOD_HIGG1D1.f857_m1855_p3468/
period2017 data17_13TeV:data17_13TeV.00333519.physics_Main.deriv.DAOD_HIGG1D1.f857_m1855_p3468/
period2017 data17_13TeV:data17_13TeV.00333650.physics_Main.deriv.DAOD_HIGG1D1.f857_m1855_p3468/
period2017 data17_13TeV:data17_13TeV.00333707.physics_Main.deriv.DAOD_HIGG1D1.f857_m1855_p3468/
period2017 data17_13TeV:data17_13TeV.00333778.physics_Main.deriv.DAOD_HIGG1D1.f857_m1855_p3468/
period2017 data17_13TeV:data17_13TeV.00333828.physics_Main.deriv.DAOD_HIGG1D1.f857_m1855_p3468/
period2017 data17_13TeV:data17_13TeV.00333853.physics_Main.deriv.DAOD_HIGG1D1.f857_m1855_p3468/
period2017 data17_13TeV:data17_13TeV.00333904.physics_Main.deriv.DAOD_HIGG1D1.f857_m1855_p3468/
period2017 data17_13TeV:data17_13TeV.00333979.physics_Main.deriv.DAOD_HIGG1D1.f859_m1860_p3468/
period2017 data17_13TeV:data17_13TeV.00333994.physics_Main.deriv.DAOD_HIGG1D1.f859_m1860_p3468/
period2017 data17_13TeV:data17_13TeV.00334264.physics_Main.deriv.DAOD_HIGG1D1.f859_m1860_p3468/
period2017 data17_13TeV:data17_13TeV.00334317.physics_Main.deriv.DAOD_HIGG1D1.f859_m1860_p3468/
period2017 data17_13TeV:data17_13TeV.00334350.physics_Main.deriv.DAOD_HIGG1D1.f859_m1860_p3468/
period2017 data17_13TeV:data17_13TeV.00334384.physics_Main.deriv.DAOD_HIGG1D1.f859_m1860_p3468/
period2017 data17_13TeV:data17_13TeV.00334413.physics_Main.deriv.DAOD_HIGG1D1.f859_m1860_p3468/
period2017 data17_13TeV:data17_13TeV.00334443.physics_Main.deriv.DAOD_HIGG1D1.f859_m1860_p3468/
period2017 data17_13TeV:data17_13TeV.00334455.physics_Main.deriv.DAOD_HIGG1D1.f859_m1860_p3468/
period2017 data17_13TeV:data17_13TeV.00334487.physics_Main.deriv.DAOD_HIGG1D1.f859_m1860_p3468/
period2017 data17_13TeV:data17_13TeV.00334564.physics_Main.deriv.DAOD_HIGG1D1.f859_m1860_p3468/
period2017 data17_13TeV:data17_13TeV.00334580.physics_Main.deriv.DAOD_HIGG1D1.f859_m1860_p3468/
period2017 data17_13TeV:data17_13TeV.00334588.physics_Main.deriv.DAOD_HIGG1D1.f859_m1860_p3468/
period2017 data17_13TeV:data17_13TeV.00334637.physics_Main.deriv.DAOD_HIGG1D1.f859_m1860_p3468/
period2017 data17_13TeV:data17_13TeV.00334678.physics_Main.deriv.DAOD_HIGG1D1.f859_m1860_p3468/
period2017 data17_13TeV:data17_13TeV.00334737.physics_Main.deriv.DAOD_HIGG1D1.f859_m1860_p3468/
period2017 data17_13TeV:data17_13TeV.00334779.physics_Main.deriv.DAOD_HIGG1D1.f867_m1860_p3468/
period2017 data17_13TeV:data17_13TeV.00334842.physics_Main.deriv.DAOD_HIGG1D1.f867_m1860_p3468/
period2017 data17_13TeV:data17_13TeV.00334849.physics_Main.deriv.DAOD_HIGG1D1.f867_m1860_p3468/
period2017 data17_13TeV:data17_13TeV.00334878.physics_Main.deriv.DAOD_HIGG1D1.f867_m1860_p3468/
period2017 data17_13TeV:data17_13TeV.00334890.physics_Main.deriv.DAOD_HIGG1D1.f867_m1860_p3468/
period2017 data17_13TeV:data17_13TeV.00334907.physics_Main.deriv.DAOD_HIGG1D1.f867_m1860_p3468/
period2017 data17_13TeV:data17_13TeV.00334960.physics_Main.deriv.DAOD_HIGG1D1.f868_m1870_p3468/
period2017 data17_13TeV:data17_13TeV.00334993.physics_Main.deriv.DAOD_HIGG1D1.f868_m1870_p3468/
period2017 data17_13TeV:data17_13TeV.00335016.physics_Main.deriv.DAOD_HIGG1D1.f868_m1870_p3468/
period2017 data17_13TeV:data17_13TeV.00335022.physics_Main.deriv.DAOD_HIGG1D1.f868_m1870_p3468/
period2017 data17_13TeV:data17_13TeV.00335056.physics_Main.deriv.DAOD_HIGG1D1.f868_m1870_p3468/
period2017 data17_13TeV:data17_13TeV.00335082.physics_Main.deriv.DAOD_HIGG1D1.f868_m1870_p3468/
period2017 data17_13TeV:data17_13TeV.00335083.physics_Main.deriv.DAOD_HIGG1D1.f868_m1870_p3468/
period2017 data17_13TeV:data17_13TeV.00335131.physics_Main.deriv.DAOD_HIGG1D1.f868_m1870_p3468/
period2017 data17_13TeV:data17_13TeV.00335170.physics_Main.deriv.DAOD_HIGG1D1.f868_m1870_p3468/
period2017 data17_13TeV:data17_13TeV.00335177.physics_Main.deriv.DAOD_HIGG1D1.f868_m1870_p3468/
period2017 data17_13TeV:data17_13TeV.00335222.physics_Main.deriv.DAOD_HIGG1D1.f868_m1870_p3468/
period2017 data17_13TeV:data17_13TeV.00335282.physics_Main.deriv.DAOD_HIGG1D1.f868_m1870_p3468/
period2017 data17_13TeV:data17_13TeV.00335290.physics_Main.deriv.DAOD_HIGG1D1.f868_m1870_p3468/
period2017 data17_13TeV:data17_13TeV.00336506.physics_Main.deriv.DAOD_HIGG1D1.f873_m1885_p3468/
period2017 data17_13TeV:data17_13TeV.00336548.physics_Main.deriv.DAOD_HIGG1D1.f873_m1885_p3468/
period2017 data17_13TeV:data17_13TeV.00336567.physics_Main.deriv.DAOD_HIGG1D1.f873_m1885_p3468/
period2017 data17_13TeV:data17_13TeV.00336630.physics_Main.deriv.DAOD_HIGG1D1.f868_m1870_p3468/
period2017 data17_13TeV:data17_13TeV.00336678.physics_Main.deriv.DAOD_HIGG1D1.f868_m1870_p3468/
period2017 data17_13TeV:data17_13TeV.00336719.physics_Main.deriv.DAOD_HIGG1D1.f868_m1870_p3468/
period2017 data17_13TeV:data17_13TeV.00336782.physics_Main.deriv.DAOD_HIGG1D1.f868_m1879_p3468/
period2017 data17_13TeV:data17_13TeV.00336832.physics_Main.deriv.DAOD_HIGG1D1.f868_m1879_p3468/
period2017 data17_13TeV:data17_13TeV.00336852.physics_Main.deriv.DAOD_HIGG1D1.f871_m1879_p3468/
period2017 data17_13TeV:data17_13TeV.00336915.physics_Main.deriv.DAOD_HIGG1D1.f871_m1879_p3468/
period2017 data17_13TeV:data17_13TeV.00336927.physics_Main.deriv.DAOD_HIGG1D1.f871_m1879_p3468/
period2017 data17_13TeV:data17_13TeV.00336944.physics_Main.deriv.DAOD_HIGG1D1.f871_m1879_p3468/
period2017 data17_13TeV:data17_13TeV.00336998.physics_Main.deriv.DAOD_HIGG1D1.f871_m1879_p3468/
period2017 data17_13TeV:data17_13TeV.00337005.physics_Main.deriv.DAOD_HIGG1D1.f871_m1879_p3468/
period2017 data17_13TeV:data17_13TeV.00337052.physics_Main.deriv.DAOD_HIGG1D1.f871_m1879_p3468/
period2017 data17_13TeV:data17_13TeV.00337107.physics_Main.deriv.DAOD_HIGG1D1.f871_m1879_p3468/
period2017 data17_13TeV:data17_13TeV.00337156.physics_Main.deriv.DAOD_HIGG1D1.f871_m1879_p3468/
period2017 data17_13TeV:data17_13TeV.00337176.physics_Main.deriv.DAOD_HIGG1D1.f871_m1879_p3468/
period2017 data17_13TeV:data17_13TeV.00337215.physics_Main.deriv.DAOD_HIGG1D1.f871_m1879_p3468/
period2017 data17_13TeV:data17_13TeV.00337263.physics_Main.deriv.DAOD_HIGG1D1.f871_m1879_p3468/
period2017 data17_13TeV:data17_13TeV.00337335.physics_Main.deriv.DAOD_HIGG1D1.f871_m1879_p3468/
period2017 data17_13TeV:data17_13TeV.00337371.physics_Main.deriv.DAOD_HIGG1D1.f871_m1879_p3468/
period2017 data17_13TeV:data17_13TeV.00337404.physics_Main.deriv.DAOD_HIGG1D1.f871_m1879_p3468/
period2017 data17_13TeV:data17_13TeV.00337451.physics_Main.deriv.DAOD_HIGG1D1.f873_m1879_p3468/
period2017 data17_13TeV:data17_13TeV.00337491.physics_Main.deriv.DAOD_HIGG1D1.f873_m1885_p3468/
period2017 data17_13TeV:data17_13TeV.00337542.physics_Main.deriv.DAOD_HIGG1D1.f873_m1885_p3468/
period2017 data17_13TeV:data17_13TeV.00337662.physics_Main.deriv.DAOD_HIGG1D1.f877_m1885_p3468/
period2017 data17_13TeV:data17_13TeV.00337705.physics_Main.deriv.DAOD_HIGG1D1.f877_m1885_p3468/
period2017 data17_13TeV:data17_13TeV.00337833.physics_Main.deriv.DAOD_HIGG1D1.f886_m1885_p3468/
period2017 data17_13TeV:data17_13TeV.00338183.physics_Main.deriv.DAOD_HIGG1D1.f877_m1885_p3468/
period2017 data17_13TeV:data17_13TeV.00338220.physics_Main.deriv.DAOD_HIGG1D1.f877_m1885_p3468/
period2017 data17_13TeV:data17_13TeV.00338259.physics_Main.deriv.DAOD_HIGG1D1.f877_m1885_p3468/
period2017 data17_13TeV:data17_13TeV.00338263.physics_Main.deriv.DAOD_HIGG1D1.f877_m1885_p3468/
period2017 data17_13TeV:data17_13TeV.00338349.physics_Main.deriv.DAOD_HIGG1D1.f877_m1885_p3468/
period2017 data17_13TeV:data17_13TeV.00338377.physics_Main.deriv.DAOD_HIGG1D1.f877_m1885_p3468/
period2017 data17_13TeV:data17_13TeV.00338480.physics_Main.deriv.DAOD_HIGG1D1.f877_m1892_p3468/
period2017 data17_13TeV:data17_13TeV.00338498.physics_Main.deriv.DAOD_HIGG1D1.f877_m1892_p3468/
period2017 data17_13TeV:data17_13TeV.00338608.physics_Main.deriv.DAOD_HIGG1D1.f877_m1892_p3468/
period2017 data17_13TeV:data17_13TeV.00338675.physics_Main.deriv.DAOD_HIGG1D1.f877_m1892_p3468/
period2017 data17_13TeV:data17_13TeV.00338712.physics_Main.deriv.DAOD_HIGG1D1.f877_m1892_p3468/
period2017 data17_13TeV:data17_13TeV.00338767.physics_Main.deriv.DAOD_HIGG1D1.f877_m1892_p3468/
period2017 data17_13TeV:data17_13TeV.00338834.physics_Main.deriv.DAOD_HIGG1D1.f877_m1892_p3468/
period2017 data17_13TeV:data17_13TeV.00338846.physics_Main.deriv.DAOD_HIGG1D1.f877_m1892_p3468/
period2017 data17_13TeV:data17_13TeV.00338897.physics_Main.deriv.DAOD_HIGG1D1.f877_m1897_p3468/
period2017 data17_13TeV:data17_13TeV.00338933.physics_Main.deriv.DAOD_HIGG1D1.f877_m1897_p3468/
period2017 data17_13TeV:data17_13TeV.00338967.physics_Main.deriv.DAOD_HIGG1D1.f877_m1897_p3468/
period2017 data17_13TeV:data17_13TeV.00338987.physics_Main.deriv.DAOD_HIGG1D1.f887_m1897_p3468/
period2017 data17_13TeV:data17_13TeV.00339037.physics_Main.deriv.DAOD_HIGG1D1.f887_m1897_p3468/
period2017 data17_13TeV:data17_13TeV.00339070.physics_Main.deriv.DAOD_HIGG1D1.f887_m1897_p3468/
period2017 data17_13TeV:data17_13TeV.00339205.physics_Main.deriv.DAOD_HIGG1D1.f887_m1897_p3468/
period2017 data17_13TeV:data17_13TeV.00339346.physics_Main.deriv.DAOD_HIGG1D1.f887_m1897_p3468/
period2017 data17_13TeV:data17_13TeV.00339387.physics_Main.deriv.DAOD_HIGG1D1.f887_m1897_p3468/
period2017 data17_13TeV:data17_13TeV.00339396.physics_Main.deriv.DAOD_HIGG1D1.f887_m1897_p3468/
period2017 data17_13TeV:data17_13TeV.00339435.physics_Main.deriv.DAOD_HIGG1D1.f904_m1912_p3468/
period2017 data17_13TeV:data17_13TeV.00339500.physics_Main.deriv.DAOD_HIGG1D1.f889_m1902_p3468/
period2017 data17_13TeV:data17_13TeV.00339535.physics_Main.deriv.DAOD_HIGG1D1.f889_m1902_p3468/
period2017 data17_13TeV:data17_13TeV.00339562.physics_Main.deriv.DAOD_HIGG1D1.f889_m1902_p3468/
period2017 data17_13TeV:data17_13TeV.00339590.physics_Main.deriv.DAOD_HIGG1D1.f889_m1902_p3468/
period2017 data17_13TeV:data17_13TeV.00339758.physics_Main.deriv.DAOD_HIGG1D1.f889_m1902_p3468/
period2017 data17_13TeV:data17_13TeV.00339849.physics_Main.deriv.DAOD_HIGG1D1.f889_m1902_p3468/
period2017 data17_13TeV:data17_13TeV.00339957.physics_Main.deriv.DAOD_HIGG1D1.f889_m1902_p3468/
period2017 data17_13TeV:data17_13TeV.00340030.physics_Main.deriv.DAOD_HIGG1D1.f889_m1902_p3468/
period2017 data17_13TeV:data17_13TeV.00340072.physics_Main.deriv.DAOD_HIGG1D1.f889_m1907_p3468/
period2017 data17_13TeV:data17_13TeV.00340368.physics_Main.deriv.DAOD_HIGG1D1.f894_m1907_p3468/
period2017 data17_13TeV:data17_13TeV.00340453.physics_Main.deriv.DAOD_HIGG1D1.f894_m1902_p3468/

# GRL: GoodRunsLists/data16_13TeV/20170605/data16_13TeV.periodAllYear_DetStatus-v89-pro21-01_DQDefects-00-02-04_PHYS_StandardGRL_All_Good_25ns.xml
period2016 data16_13TeV:data16_13TeV.00297730.physics_Main.deriv.DAOD_HIGG1D1.r9264_p3083_p3402/
period2016 data16_13TeV:data16_13TeV.00298595.physics_Main.deriv.DAOD_HIGG1D1.r9264_p3083_p3402/
period2016 data16_13TeV:data16_13TeV.00298609.physics_Main.deriv.DAOD_HIGG1D1.r9264_p3083_p3402/
period2016 data16_13TeV:data16_13TeV.00298633.physics_Main.deriv.DAOD_HIGG1D1.r9264_p3083_p3402/
period2016 data16_13TeV:data16_13TeV.00298687.physics_Main.deriv.DAOD_HIGG1D1.r9264_p3083_p3402/
period2016 data16_13TeV:data16_13TeV.00298690.physics_Main.deriv.DAOD_HIGG1D1.r9264_p3083_p3402/
period2016 data16_13TeV:data16_13TeV.00298771.physics_Main.deriv.DAOD_HIGG1D1.r9264_p3083_p3402/
period2016 data16_13TeV:data16_13TeV.00298773.physics_Main.deriv.DAOD_HIGG1D1.r9264_p3083_p3402/
period2016 data16_13TeV:data16_13TeV.00298862.physics_Main.deriv.DAOD_HIGG1D1.r9264_p3083_p3402/
period2016 data16_13TeV:data16_13TeV.00298967.physics_Main.deriv.DAOD_HIGG1D1.r9264_p3083_p3402/
period2016 data16_13TeV:data16_13TeV.00299055.physics_Main.deriv.DAOD_HIGG1D1.r9264_p3083_p3402/
period2016 data16_13TeV:data16_13TeV.00299144.physics_Main.deriv.DAOD_HIGG1D1.r9264_p3083_p3402/
period2016 data16_13TeV:data16_13TeV.00299147.physics_Main.deriv.DAOD_HIGG1D1.r9264_p3083_p3402/
period2016 data16_13TeV:data16_13TeV.00299184.physics_Main.deriv.DAOD_HIGG1D1.r9264_p3083_p3402/
period2016 data16_13TeV:data16_13TeV.00299243.physics_Main.deriv.DAOD_HIGG1D1.r9264_p3083_p3402/
period2016 data16_13TeV:data16_13TeV.00299584.physics_Main.deriv.DAOD_HIGG1D1.r9264_p3083_p3402/
period2016 data16_13TeV:data16_13TeV.00300279.physics_Main.deriv.DAOD_HIGG1D1.r9264_p3083_p3402/
period2016 data16_13TeV:data16_13TeV.00300345.physics_Main.deriv.DAOD_HIGG1D1.r9264_p3083_p3402/
period2016 data16_13TeV:data16_13TeV.00300415.physics_Main.deriv.DAOD_HIGG1D1.r9264_p3083_p3402/
period2016 data16_13TeV:data16_13TeV.00300418.physics_Main.deriv.DAOD_HIGG1D1.r9264_p3083_p3402/
period2016 data16_13TeV:data16_13TeV.00300487.physics_Main.deriv.DAOD_HIGG1D1.r9264_p3083_p3402/
period2016 data16_13TeV:data16_13TeV.00300540.physics_Main.deriv.DAOD_HIGG1D1.r9264_p3083_p3402/
period2016 data16_13TeV:data16_13TeV.00300571.physics_Main.deriv.DAOD_HIGG1D1.r9264_p3083_p3402/
period2016 data16_13TeV:data16_13TeV.00300600.physics_Main.deriv.DAOD_HIGG1D1.r9264_p3083_p3402/
period2016 data16_13TeV:data16_13TeV.00300655.physics_Main.deriv.DAOD_HIGG1D1.r9264_p3083_p3402/
period2016 data16_13TeV:data16_13TeV.00300687.physics_Main.deriv.DAOD_HIGG1D1.r9264_p3083_p3402/
period2016 data16_13TeV:data16_13TeV.00300784.physics_Main.deriv.DAOD_HIGG1D1.r9264_p3083_p3402/
period2016 data16_13TeV:data16_13TeV.00300800.physics_Main.deriv.DAOD_HIGG1D1.r9264_p3083_p3402/
period2016 data16_13TeV:data16_13TeV.00300863.physics_Main.deriv.DAOD_HIGG1D1.r9264_p3083_p3402/
period2016 data16_13TeV:data16_13TeV.00300908.physics_Main.deriv.DAOD_HIGG1D1.r9264_p3083_p3402/
period2016 data16_13TeV:data16_13TeV.00301912.physics_Main.deriv.DAOD_HIGG1D1.r9264_p3083_p3402/
period2016 data16_13TeV:data16_13TeV.00301915.physics_Main.deriv.DAOD_HIGG1D1.r9264_p3083_p3402/
period2016 data16_13TeV:data16_13TeV.00301918.physics_Main.deriv.DAOD_HIGG1D1.r9264_p3083_p3402/
period2016 data16_13TeV:data16_13TeV.00301932.physics_Main.deriv.DAOD_HIGG1D1.r9264_p3083_p3402/
period2016 data16_13TeV:data16_13TeV.00301973.physics_Main.deriv.DAOD_HIGG1D1.r9264_p3083_p3402/
period2016 data16_13TeV:data16_13TeV.00302053.physics_Main.deriv.DAOD_HIGG1D1.r9264_p3083_p3402/
period2016 data16_13TeV:data16_13TeV.00302137.physics_Main.deriv.DAOD_HIGG1D1.r9264_p3083_p3402/
period2016 data16_13TeV:data16_13TeV.00302265.physics_Main.deriv.DAOD_HIGG1D1.r9264_p3083_p3402/
period2016 data16_13TeV:data16_13TeV.00302269.physics_Main.deriv.DAOD_HIGG1D1.r9264_p3083_p3402/
period2016 data16_13TeV:data16_13TeV.00302300.physics_Main.deriv.DAOD_HIGG1D1.r9264_p3083_p3402/
period2016 data16_13TeV:data16_13TeV.00302347.physics_Main.deriv.DAOD_HIGG1D1.r9264_p3083_p3402/
period2016 data16_13TeV:data16_13TeV.00302380.physics_Main.deriv.DAOD_HIGG1D1.r9264_p3083_p3402/
period2016 data16_13TeV:data16_13TeV.00302391.physics_Main.deriv.DAOD_HIGG1D1.r9264_p3083_p3402/
period2016 data16_13TeV:data16_13TeV.00302393.physics_Main.deriv.DAOD_HIGG1D1.r9264_p3083_p3402/
period2016 data16_13TeV:data16_13TeV.00302737.physics_Main.deriv.DAOD_HIGG1D1.r9264_p3083_p3402/
period2016 data16_13TeV:data16_13TeV.00302831.physics_Main.deriv.DAOD_HIGG1D1.r9264_p3083_p3402/
period2016 data16_13TeV:data16_13TeV.00302872.physics_Main.deriv.DAOD_HIGG1D1.r9264_p3083_p3402/
period2016 data16_13TeV:data16_13TeV.00302919.physics_Main.deriv.DAOD_HIGG1D1.r9264_p3083_p3402/
period2016 data16_13TeV:data16_13TeV.00302925.physics_Main.deriv.DAOD_HIGG1D1.r9264_p3083_p3402/
period2016 data16_13TeV:data16_13TeV.00302956.physics_Main.deriv.DAOD_HIGG1D1.r9264_p3083_p3402/
period2016 data16_13TeV:data16_13TeV.00303007.physics_Main.deriv.DAOD_HIGG1D1.r9264_p3083_p3402/
period2016 data16_13TeV:data16_13TeV.00303079.physics_Main.deriv.DAOD_HIGG1D1.r9264_p3083_p3402/
period2016 data16_13TeV:data16_13TeV.00303201.physics_Main.deriv.DAOD_HIGG1D1.r9264_p3083_p3402/
period2016 data16_13TeV:data16_13TeV.00303208.physics_Main.deriv.DAOD_HIGG1D1.r9264_p3083_p3402/
period2016 data16_13TeV:data16_13TeV.00303264.physics_Main.deriv.DAOD_HIGG1D1.r9264_p3083_p3402/
period2016 data16_13TeV:data16_13TeV.00303266.physics_Main.deriv.DAOD_HIGG1D1.r9264_p3083_p3402/
period2016 data16_13TeV:data16_13TeV.00303291.physics_Main.deriv.DAOD_HIGG1D1.r9264_p3083_p3402/
period2016 data16_13TeV:data16_13TeV.00303304.physics_Main.deriv.DAOD_HIGG1D1.r9264_p3083_p3402/
period2016 data16_13TeV:data16_13TeV.00303338.physics_Main.deriv.DAOD_HIGG1D1.r9264_p3083_p3402/
period2016 data16_13TeV:data16_13TeV.00303421.physics_Main.deriv.DAOD_HIGG1D1.r9264_p3083_p3402/
period2016 data16_13TeV:data16_13TeV.00303499.physics_Main.deriv.DAOD_HIGG1D1.r9264_p3083_p3402/
period2016 data16_13TeV:data16_13TeV.00303560.physics_Main.deriv.DAOD_HIGG1D1.r9264_p3083_p3402/
period2016 data16_13TeV:data16_13TeV.00303638.physics_Main.deriv.DAOD_HIGG1D1.r9264_p3083_p3402/
period2016 data16_13TeV:data16_13TeV.00303832.physics_Main.deriv.DAOD_HIGG1D1.r9264_p3083_p3402/
period2016 data16_13TeV:data16_13TeV.00303846.physics_Main.deriv.DAOD_HIGG1D1.r9264_p3083_p3402/
period2016 data16_13TeV:data16_13TeV.00303892.physics_Main.deriv.DAOD_HIGG1D1.r9264_p3083_p3402/
period2016 data16_13TeV:data16_13TeV.00303943.physics_Main.deriv.DAOD_HIGG1D1.r9264_p3083_p3402/
period2016 data16_13TeV:data16_13TeV.00304006.physics_Main.deriv.DAOD_HIGG1D1.r9264_p3083_p3402/
period2016 data16_13TeV:data16_13TeV.00304008.physics_Main.deriv.DAOD_HIGG1D1.r9264_p3083_p3402/
period2016 data16_13TeV:data16_13TeV.00304128.physics_Main.deriv.DAOD_HIGG1D1.r9264_p3083_p3402/
period2016 data16_13TeV:data16_13TeV.00304178.physics_Main.deriv.DAOD_HIGG1D1.r9264_p3083_p3402/
period2016 data16_13TeV:data16_13TeV.00304198.physics_Main.deriv.DAOD_HIGG1D1.r9264_p3083_p3402/
period2016 data16_13TeV:data16_13TeV.00304211.physics_Main.deriv.DAOD_HIGG1D1.r9264_p3083_p3402/
period2016 data16_13TeV:data16_13TeV.00304243.physics_Main.deriv.DAOD_HIGG1D1.r9264_p3083_p3402/
period2016 data16_13TeV:data16_13TeV.00304308.physics_Main.deriv.DAOD_HIGG1D1.r9264_p3083_p3402/
period2016 data16_13TeV:data16_13TeV.00304337.physics_Main.deriv.DAOD_HIGG1D1.r9264_p3083_p3402/
period2016 data16_13TeV:data16_13TeV.00304409.physics_Main.deriv.DAOD_HIGG1D1.r9264_p3083_p3402/
period2016 data16_13TeV:data16_13TeV.00304431.physics_Main.deriv.DAOD_HIGG1D1.r9264_p3083_p3402/
period2016 data16_13TeV:data16_13TeV.00304494.physics_Main.deriv.DAOD_HIGG1D1.r9264_p3083_p3402/
period2016 data16_13TeV:data16_13TeV.00305380.physics_Main.deriv.DAOD_HIGG1D1.r9264_p3083_p3402/
period2016 data16_13TeV:data16_13TeV.00305543.physics_Main.deriv.DAOD_HIGG1D1.r9264_p3083_p3402/
period2016 data16_13TeV:data16_13TeV.00305571.physics_Main.deriv.DAOD_HIGG1D1.r9264_p3083_p3402/
period2016 data16_13TeV:data16_13TeV.00305618.physics_Main.deriv.DAOD_HIGG1D1.r9264_p3083_p3402/
period2016 data16_13TeV:data16_13TeV.00305671.physics_Main.deriv.DAOD_HIGG1D1.r9264_p3083_p3402/
period2016 data16_13TeV:data16_13TeV.00305674.physics_Main.deriv.DAOD_HIGG1D1.r9264_p3083_p3402/
period2016 data16_13TeV:data16_13TeV.00305723.physics_Main.deriv.DAOD_HIGG1D1.r9264_p3083_p3402/
period2016 data16_13TeV:data16_13TeV.00305727.physics_Main.deriv.DAOD_HIGG1D1.r9264_p3083_p3402/
period2016 data16_13TeV:data16_13TeV.00305735.physics_Main.deriv.DAOD_HIGG1D1.r9264_p3083_p3402/
period2016 data16_13TeV:data16_13TeV.00305777.physics_Main.deriv.DAOD_HIGG1D1.r9264_p3083_p3402/
period2016 data16_13TeV:data16_13TeV.00305811.physics_Main.deriv.DAOD_HIGG1D1.r9264_p3083_p3402/
period2016 data16_13TeV:data16_13TeV.00305920.physics_Main.deriv.DAOD_HIGG1D1.r9264_p3083_p3402/
period2016 data16_13TeV:data16_13TeV.00306269.physics_Main.deriv.DAOD_HIGG1D1.r9264_p3083_p3402/
period2016 data16_13TeV:data16_13TeV.00306278.physics_Main.deriv.DAOD_HIGG1D1.r9264_p3083_p3402/
period2016 data16_13TeV:data16_13TeV.00306310.physics_Main.deriv.DAOD_HIGG1D1.r9264_p3083_p3402/
period2016 data16_13TeV:data16_13TeV.00306384.physics_Main.deriv.DAOD_HIGG1D1.r9264_p3083_p3402/
period2016 data16_13TeV:data16_13TeV.00306419.physics_Main.deriv.DAOD_HIGG1D1.r9264_p3083_p3402/
period2016 data16_13TeV:data16_13TeV.00306442.physics_Main.deriv.DAOD_HIGG1D1.r9264_p3083_p3402/
period2016 data16_13TeV:data16_13TeV.00306448.physics_Main.deriv.DAOD_HIGG1D1.r9264_p3083_p3402/
period2016 data16_13TeV:data16_13TeV.00306451.physics_Main.deriv.DAOD_HIGG1D1.r9264_p3083_p3402/
period2016 data16_13TeV:data16_13TeV.00307126.physics_Main.deriv.DAOD_HIGG1D1.r9264_p3083_p3402/
period2016 data16_13TeV:data16_13TeV.00307195.physics_Main.deriv.DAOD_HIGG1D1.r9264_p3083_p3402/
period2016 data16_13TeV:data16_13TeV.00307259.physics_Main.deriv.DAOD_HIGG1D1.r9264_p3083_p3402/
period2016 data16_13TeV:data16_13TeV.00307306.physics_Main.deriv.DAOD_HIGG1D1.r9264_p3083_p3402/
period2016 data16_13TeV:data16_13TeV.00307354.physics_Main.deriv.DAOD_HIGG1D1.r9264_p3083_p3402/
period2016 data16_13TeV:data16_13TeV.00307358.physics_Main.deriv.DAOD_HIGG1D1.r9264_p3083_p3402/
period2016 data16_13TeV:data16_13TeV.00307394.physics_Main.deriv.DAOD_HIGG1D1.r9264_p3083_p3402/
period2016 data16_13TeV:data16_13TeV.00307454.physics_Main.deriv.DAOD_HIGG1D1.r9264_p3083_p3402/
period2016 data16_13TeV:data16_13TeV.00307514.physics_Main.deriv.DAOD_HIGG1D1.r9264_p3083_p3402/
period2016 data16_13TeV:data16_13TeV.00307539.physics_Main.deriv.DAOD_HIGG1D1.r9264_p3083_p3402/
period2016 data16_13TeV:data16_13TeV.00307569.physics_Main.deriv.DAOD_HIGG1D1.r9264_p3083_p3402/
period2016 data16_13TeV:data16_13TeV.00307601.physics_Main.deriv.DAOD_HIGG1D1.r9264_p3083_p3402/
period2016 data16_13TeV:data16_13TeV.00307619.physics_Main.deriv.DAOD_HIGG1D1.r9264_p3083_p3402/
period2016 data16_13TeV:data16_13TeV.00307656.physics_Main.deriv.DAOD_HIGG1D1.r9264_p3083_p3402/
period2016 data16_13TeV:data16_13TeV.00307710.physics_Main.deriv.DAOD_HIGG1D1.r9264_p3083_p3402/
period2016 data16_13TeV:data16_13TeV.00307716.physics_Main.deriv.DAOD_HIGG1D1.r9264_p3083_p3402/
period2016 data16_13TeV:data16_13TeV.00307732.physics_Main.deriv.DAOD_HIGG1D1.r9264_p3083_p3402/
period2016 data16_13TeV:data16_13TeV.00307861.physics_Main.deriv.DAOD_HIGG1D1.r9264_p3083_p3402/
period2016 data16_13TeV:data16_13TeV.00307935.physics_Main.deriv.DAOD_HIGG1D1.r9264_p3083_p3402/
period2016 data16_13TeV:data16_13TeV.00308047.physics_Main.deriv.DAOD_HIGG1D1.r9264_p3083_p3402/
period2016 data16_13TeV:data16_13TeV.00308084.physics_Main.deriv.DAOD_HIGG1D1.r9264_p3083_p3402/
period2016 data16_13TeV:data16_13TeV.00309375.physics_Main.deriv.DAOD_HIGG1D1.r9264_p3083_p3402/
period2016 data16_13TeV:data16_13TeV.00309390.physics_Main.deriv.DAOD_HIGG1D1.r9264_p3083_p3402/
period2016 data16_13TeV:data16_13TeV.00309440.physics_Main.deriv.DAOD_HIGG1D1.r9264_p3083_p3402/
period2016 data16_13TeV:data16_13TeV.00309516.physics_Main.deriv.DAOD_HIGG1D1.r9264_p3083_p3402/
period2016 data16_13TeV:data16_13TeV.00309640.physics_Main.deriv.DAOD_HIGG1D1.r9264_p3083_p3402/
period2016 data16_13TeV:data16_13TeV.00309674.physics_Main.deriv.DAOD_HIGG1D1.r9264_p3083_p3402/
period2016 data16_13TeV:data16_13TeV.00309759.physics_Main.deriv.DAOD_HIGG1D1.r9264_p3083_p3402/
period2016 data16_13TeV:data16_13TeV.00310015.physics_Main.deriv.DAOD_HIGG1D1.r9264_p3083_p3402/
period2016 data16_13TeV:data16_13TeV.00310247.physics_Main.deriv.DAOD_HIGG1D1.r9264_p3083_p3402/
period2016 data16_13TeV:data16_13TeV.00310249.physics_Main.deriv.DAOD_HIGG1D1.r9264_p3083_p3402/
period2016 data16_13TeV:data16_13TeV.00310341.physics_Main.deriv.DAOD_HIGG1D1.r9264_p3083_p3402/
period2016 data16_13TeV:data16_13TeV.00310370.physics_Main.deriv.DAOD_HIGG1D1.r9264_p3083_p3402/
period2016 data16_13TeV:data16_13TeV.00310405.physics_Main.deriv.DAOD_HIGG1D1.r9264_p3083_p3402/
period2016 data16_13TeV:data16_13TeV.00310468.physics_Main.deriv.DAOD_HIGG1D1.r9264_p3083_p3402/
period2016 data16_13TeV:data16_13TeV.00310473.physics_Main.deriv.DAOD_HIGG1D1.r9264_p3083_p3402/
period2016 data16_13TeV:data16_13TeV.00310634.physics_Main.deriv.DAOD_HIGG1D1.r9264_p3083_p3402/
period2016 data16_13TeV:data16_13TeV.00310691.physics_Main.deriv.DAOD_HIGG1D1.r9264_p3083_p3402/
period2016 data16_13TeV:data16_13TeV.00310738.physics_Main.deriv.DAOD_HIGG1D1.r9264_p3083_p3402/
period2016 data16_13TeV:data16_13TeV.00310809.physics_Main.deriv.DAOD_HIGG1D1.r9264_p3083_p3402/
period2016 data16_13TeV:data16_13TeV.00310863.physics_Main.deriv.DAOD_HIGG1D1.r9264_p3083_p3402/
period2016 data16_13TeV:data16_13TeV.00310872.physics_Main.deriv.DAOD_HIGG1D1.r9264_p3083_p3402/
period2016 data16_13TeV:data16_13TeV.00310969.physics_Main.deriv.DAOD_HIGG1D1.r9264_p3083_p3402/
period2016 data16_13TeV:data16_13TeV.00311071.physics_Main.deriv.DAOD_HIGG1D1.r9264_p3083_p3402/
period2016 data16_13TeV:data16_13TeV.00311170.physics_Main.deriv.DAOD_HIGG1D1.r9264_p3083_p3402/
period2016 data16_13TeV:data16_13TeV.00311244.physics_Main.deriv.DAOD_HIGG1D1.r9264_p3083_p3402/
period2016 data16_13TeV:data16_13TeV.00311287.physics_Main.deriv.DAOD_HIGG1D1.r9264_p3083_p3402/
period2016 data16_13TeV:data16_13TeV.00311321.physics_Main.deriv.DAOD_HIGG1D1.r9264_p3083_p3402/
period2016 data16_13TeV:data16_13TeV.00311365.physics_Main.deriv.DAOD_HIGG1D1.r9264_p3083_p3402/
period2016 data16_13TeV:data16_13TeV.00311402.physics_Main.deriv.DAOD_HIGG1D1.r9264_p3083_p3402/
period2016 data16_13TeV:data16_13TeV.00311473.physics_Main.deriv.DAOD_HIGG1D1.r9264_p3083_p3402/
period2016 data16_13TeV:data16_13TeV.00311481.physics_Main.deriv.DAOD_HIGG1D1.r9264_p3083_p3402/


# GRL: GoodRunsLists/data16_13TeV/20170605/data16_13TeV.periodAllYear_DetStatus-v89-pro21-01_DQDefects-00-02-04_PHYS_StandardGRL_All_Good_25ns_ignore_TOROID_STATUS.xml
Period2016_iTS data16_13TeV:data16_13TeV.00299055.physics_Main.deriv.DAOD_HIGG1D1.r9264_p3083_p3402/
period2016_iTS data16_13TeV:data16_13TeV.00299241.physics_Main.deriv.DAOD_HIGG1D1.r9264_p3083_p3402/
period2016_iTS data16_13TeV:data16_13TeV.00299243.physics_Main.deriv.DAOD_HIGG1D1.r9264_p3083_p3402/
period2016_iTS data16_13TeV:data16_13TeV.00299288.physics_Main.deriv.DAOD_HIGG1D1.r9264_p3083_p3402/
period2016_iTS data16_13TeV:data16_13TeV.00299343.physics_Main.deriv.DAOD_HIGG1D1.r9264_p3083_p3402/
period2016_iTS data16_13TeV:data16_13TeV.00302829.physics_Main.deriv.DAOD_HIGG1D1.r9264_p3083_p3402/
period2016_iTS data16_13TeV:data16_13TeV.00303059.physics_Main.deriv.DAOD_HIGG1D1.r9264_p3083_p3402/
