# H125
# ------------------------------------------------------------------------------

PowhegPy8_NNLOPS_ggH125
PowhegPy8_NNPDF30_VBFH125
PowhegPy8_WmH125J
PowhegPy8_WpH125J
PowhegPy8_ZH125J
PowhegPy8_ggZH125
PowhegPy8_ttH125
MGPy8_tHjb125_yt_plus1
aMCnloHwpp_tWH125_yt_plus1
PowhegPy8_bbH125
aMCnloPy8_bbH125_yb2
aMCnloPy8_bbH125_ybyt
