PowhegPy8_NNLOPS_ggH125
PowhegPy8_WmH125J
PowhegPy8_WpH125J
PowhegPy8_ZH125J
PowhegPy8_ggZH125
PowhegPy8_ttH125
MGPy8_tHjb125_yt_plus1_mc16d
aMCnloHwpp_tWH125_yt_plus1
PowhegPy8_bbH125
aMCnloPy8_bbH125_yb2
aMCnloPy8_bbH125_ybyt

MGPy8_ZBhb800LH01K05
MGPy8_ZBhb900LH01K01
MGPy8_ZBhb900LH01K05
MGPy8_ZBhb900LH01K10
MGPy8_ZBhb1000LH01K0
MGPy8_ZBhb1200LH01K0
MGPy8_ZBhb1400LH01K0
MGPy8_ZBhb1600LH01K0
