mc16_13TeV.423104.Pythia8EvtGen_A14NNPDF23LO_gammajet_DP140_280.*.e3791_s3126_r9364_r9315*
mc16_13TeV.361106.PowhegPythia8EvtGen_AZNLOCTEQ6L1_Zee.*.e3601_s3126_r9781_r9778*
mc16_13TeV.361106.PowhegPythia8EvtGen_AZNLOCTEQ6L1_Zee.*.e3601_s3126_r10201_r10210*
mc16_13TeV.364513.Sherpa_222_NNPDF30NNLO_tautaugamma_pty_70_140.*.e5928_e5984_s3126_r10201_r10210*
mc16_13TeV.364114.Sherpa_221_NNPDF30NNLO_Zee_MAXHTPTV0_70_CVetoBVeto.*.e5299_s3126_r9781_r9778*
mc16_13TeV.364513.Sherpa_222_NNPDF30NNLO_tautaugamma_pty_70_140.*.e5928_e5984_s3126_r9781_r9778*
